0.0.0.0 www.facebook.com
0.0.0.0 m.facebook.com
0.0.0.0 api.facebook.com
0.0.0.0 b-www.facebook.com
0.0.0.0 fb.com
0.0.0.0 fb.me
0.0.0.0 gateway.facebook.com
0.0.0.0 lithium.facebook.com
0.0.0.0 lookaside.facebook.com

